/Users/mfa/eclipse-workspace/RedditModelBuild/src/CreateLuceneIndex.java
/Users/mfa/eclipse-workspace/RedditModelBuild/src/BuildVectorSpaces.java
/Users/mfa/eclipse-workspace/RedditModelBuild/src/GeneratePRX.java
